
(firefox-esr:3154): Gtk-WARNING **: Theme parsing error: <data>:1:34: Expected ')' in color definition

(firefox-esr:3154): Gtk-WARNING **: Theme parsing error: <data>:1:77: Expected ')' in color definition

(firefox-esr:3815): Gtk-WARNING **: Theme parsing error: <data>:1:34: Expected ')' in color definition

(firefox-esr:3815): Gtk-WARNING **: Theme parsing error: <data>:1:77: Expected ')' in color definition

(firefox-esr:4015): Gtk-WARNING **: Theme parsing error: <data>:1:34: Expected ')' in color definition

(firefox-esr:4015): Gtk-WARNING **: Theme parsing error: <data>:1:77: Expected ')' in color definition
